%YAML 1.1
%TAG !u! tag:unity3d.com,2011:
--- !u!114 &11400000
MonoBehaviour:
  m_ObjectHideFlags: 0
  m_CorrespondingSourceObject: {fileID: 0}
  m_PrefabInstance: {fileID: 0}
  m_PrefabAsset: {fileID: 0}
  m_GameObject: {fileID: 0}
  m_Enabled: 1
  m_EditorHideFlags: 0
  m_Script: {fileID: 11500000, guid: 7469761e328ca7544bd85b847b4ba6f9, type: 3}
  m_Name: Yellow_Auto_Steer 1
  m_EditorClassIdentifier: 
  _value: -0.005056459
  _readOnly: 0
  _raiseWarning: 1
  _isClamped: 0
  _minClampedValue: 0
  _maxClampedValue: 0
  _event:
    m_PersistentCalls:
      m_Calls: []
